{
  "type": "service_account",
  "project_id": "dpi-ofog",
  "private_key_id": "938aece3b39cdc8e17c6bb915453b4e28897c529",
  "private_key": "-----BEGIN PRIVATE KEY-----\nMIIEvQIBADANBgkqhkiG9w0BAQEFAASCBKcwggSjAgEAAoIBAQCqaKfutj2VKNo1\nWGBpQfdP9X0XR3CMh6353Yh/ndomac4r7W8jFblADZkSVcUzeCfsObQEH0wLu8P4\nhQL3qVcrWAw1kGekI4FtM1EAbOlSPuD6z0dD+hVg7CMZNiKMmfO8ZrJwA6a2/bzI\nYDmPZBHgLcRMcRMfcPFwj14zZFVNwKMeGvcGt/MNsTM20PQSX2rE5hwinV4GXJTr\n0FbOM+U1R+N02/siXDv6jZXqP0EtUbN0lv3upHk+RG+9DSIVgfzb60+FnXZU6h3k\nKZj/G2rE3p23TRbdVhKJE0zbRbmzavll8KYASl2IrJWwKVfVBX2idtrM5G67nmb6\n10mQdLNHAgMBAAECggEAEFFIL1wFBpjsWCpXxQx7hY0Qxt9g4BwH5UK41NuFLaN5\nCgzI1Re57u++ZhqPcQ/C5uRZoAFtMzxuFgiKkbOF9NEQDjr/KaD6vj2pNny3VNhP\ni8S4YsJ6NJc3/yyHX2ZIiBRfZsl6t9AROTC5okjnS0umndlABwU2IVyhHROw9Wpi\nLquXc4oVY9NljJlgYm6yx4jUQPJvYSqYG84lr65bv3Mb79cYksnzhUNl7cUrIHd6\nPvc2Q2LvAMDwr+uFJQtWzefOUPZVIhI9w9fVchJHqwkv94WibGXVE8gPUw5JUZwH\nUD6FjwzecR87rSV4p8+rTL3D2uzXwMlgdn38/WjlxQKBgQDjgl2CdKL7GcWFYyNT\nLMK6B6FpbOoWjscpZNjqtlW3ytvGLe37HzX003gz3NnbILyyn4o7CwJ2K+VaiWjv\naEtcySL5qMZk0xh8eZ/HYxfzGa7WfgM1dzDb3zMUPK3f6Px9r76ap/5JF8u3sXC8\nvHM72IgYCDU6B0sGN5bCkhJLvQKBgQC/v7qtKpZT7PQg3WkYkpgCyTyhLXufmPQx\nUaOND7pNZ9uwe5KLXiixSeyvAKTl5AIy7dVqXPccpEWcEiltVcseujcZ7Qyq0DA8\ny599ITxyQCutqHeh9rUSswx/jgbGB8/Mp8gciVWA5Be46yeSicfVtby5PDjLmDF3\n5eNGItaJUwKBgDNmAmY0n5WHDv7BlPt3g06v5qGAv6n0+724UOFF7DunkttFCRzQ\nwknbdK6S2I0O6lKYhIwuQpIb/KbloFVmBJCjyEkK/jdNEZ0dhSFwm7qKNNu0gFkV\n4m3qEQojY0zQwCpNCAy8o1A0FgwcBFI/aPE+TBDR2eSQPTzcVi0C/yspAoGBALAm\nBOrBnbnZiueKHtrpCGY+0cjLTK7vxxxrgBC9Kwui5km5K4WGaWF8pMabk+Bw1qhM\nnmqInqYcLqpScOY1E1TWAnp5rtJYUIf5EznTR4E5fCabBdOvHObhvxCKu6Q+VuIO\nHCJC815lq3k/5WmT0xV7T7TnItG9rWwUrvWmWWlrAoGABj7DTv525JePPS+ij7tz\nlmGjpiaJPTG+48xjClut2r82VgygJNwekXnUs6LFGxR3YB6pz+meMYk6KLDgdAfT\nOxHeQE1nUInxzWB2+JD6Cw5Cm18eKgk9GazwUf0D7uSxNcqv8VIep1MmqV6vhQ2q\nUfSzSTkiAn98uG1HNxg+O1A=\n-----END PRIVATE KEY-----\n",
  "client_email": "firebase-adminsdk-kev7o@dpi-ofog.iam.gserviceaccount.com",
  "client_id": "108603602715929464235",
  "auth_uri": "https://accounts.google.com/o/oauth2/auth",
  "token_uri": "https://oauth2.googleapis.com/token",
  "auth_provider_x509_cert_url": "https://www.googleapis.com/oauth2/v1/certs",
  "client_x509_cert_url": "https://www.googleapis.com/robot/v1/metadata/x509/firebase-adminsdk-kev7o%40dpi-ofog.iam.gserviceaccount.com"
}
